<svg xmlns="http://www.w3.org/2000/svg" width="20" height="17.97" viewBox="0 0 20 17.97">
  <defs>
    <style>
      .cls-1 {
        fill: #ffc821;
        fill-rule: evenodd;
      }
    </style>
  </defs>
  <path id="Forma_1" data-name="Forma 1" class="cls-1" d="M1443.88,3906.28a0.793,0.793,0,0,0,.2-1.2,0.818,0.818,0,0,0-1.22.17l-6.19,6.04s-1.45,1.82-2.55.72,0.74-2.49.74-2.49l8.12-7.91s1.89-2.04,3.67-.3-0.32,3.58-.32,3.58l-9.11,8.9s-2.92,3.28-5.62.65,0.7-5.45.7-5.45l6.92-6.75s0.78-.63.2-1.2a0.862,0.862,0,0,0-1.23.19l-7.94,7.75a4.5,4.5,0,0,0,.35,6.47,4.779,4.779,0,0,0,6.63.34l10.92-10.65a3.381,3.381,0,0,0-.42-4.89,3.59,3.59,0,0,0-5.01-.41l-9.4,9.16s-2.4,1.91-.22,4.04,4.11-.25,4.11-0.25Z" transform="translate(-1429.03 -3899.03)"/>
</svg>
